<svg width="32" height="24" viewBox="0 0 32 24" fill="none" xmlns="http://www.w3.org/2000/svg">
<path fill-rule="evenodd" clip-rule="evenodd" d="M28 6.66667C30.2057 6.66667 32 8.46094 32 10.6667C32 12.3955 30.8641 13.9112 29.2638 14.4465C29.3097 14.7381 29.3333 15.034 29.3333 15.3333C29.3333 20.112 23.3516 24 16 24C8.64844 24 2.66667 20.112 2.66667 15.3333C2.66667 15.034 2.69035 14.7381 2.73617 14.4465C1.13591 13.9112 0 12.3955 0 10.6667C0 8.46094 1.79427 6.66667 4 6.66667C5.44824 6.66667 6.7509 7.45809 7.45264 8.69035C9.60872 7.51628 12.3438 6.78548 15.3333 6.68864V0.666667C15.3333 0.468099 15.4219 0.280599 15.5742 0.153646C15.7279 0.0273438 15.931 -0.0240886 16.1224 0.0117188L24.26 1.53752C24.6868 0.63208 25.6015 0 26.6667 0C28.1367 0 29.3333 1.19596 29.3333 2.66667C29.3333 4.13737 28.1367 5.33333 26.6667 5.33333C25.2587 5.33333 24.1135 4.23291 24.0183 2.84806L16.6667 1.47005V6.68864C19.6562 6.78548 22.3913 7.51628 24.5474 8.69035C25.2491 7.45809 26.5518 6.66667 28 6.66667ZM25.7031 9.40731C27.212 10.4504 28.3232 11.7338 28.8931 13.1609C29.9326 12.7896 30.6676 11.7984 30.6676 10.6667C30.6676 9.19596 29.471 8 28.001 8C27.0221 8 26.1641 8.56095 25.7031 9.40731ZM1.33398 10.6667C1.33398 9.19596 2.5306 8 4.00065 8C4.97949 8 5.83748 8.56095 6.2985 9.40731C4.78963 10.4504 3.67847 11.7339 3.10848 13.1609C2.06901 12.7896 1.33398 11.7984 1.33398 10.6667ZM28 15.3333C28 19.3834 22.6274 22.6667 16 22.6667C9.37258 22.6667 4 19.3834 4 15.3333C4 11.2832 9.37258 8 16 8C22.6274 8 28 11.2832 28 15.3333Z" fill="#1E272E"/>
<path d="M21.74 18.7187C17.6462 20.4427 14.352 20.4427 10.2582 18.7187C9.91576 18.5762 9.52905 18.7357 9.38452 19.0749C9.24129 19.4141 9.40145 19.8047 9.73999 19.9479C11.9548 20.8802 14.0017 21.3333 15.9991 21.3333C17.9965 21.3333 20.0434 20.8802 22.2582 19.9479C22.5968 19.8047 22.7569 19.4141 22.6137 19.0749C22.4705 18.7357 22.0811 18.5775 21.74 18.7187Z" fill="#1E272E"/>
<path d="M11.334 16C12.4386 16 13.334 15.1046 13.334 14C13.334 12.8954 12.4386 12 11.334 12C10.2294 12 9.33398 12.8954 9.33398 14C9.33398 15.1046 10.2294 16 11.334 16Z" fill="#1E272E"/>
<path d="M20.666 16C21.7706 16 22.666 15.1046 22.666 14C22.666 12.8954 21.7706 12 20.666 12C19.5614 12 18.666 12.8954 18.666 14C18.666 15.1046 19.5614 16 20.666 16Z" fill="#1E272E"/>
</svg>
