<svg width="28" height="28" viewBox="0 0 28 28" fill="none" xmlns="http://www.w3.org/2000/svg">
<path d="M13.9727 0.109375C17.7461 0.109375 18.2109 0.136719 19.6875 0.191406C21.1367 0.246094 22.1484 0.492188 23.0508 0.847656C23.9805 1.20312 24.7461 1.66797 25.5117 2.43359C26.2773 3.19922 26.7422 3.96484 27.0977 4.89453C27.4531 5.79688 27.6992 6.80859 27.7539 8.25781C27.8086 9.73438 27.8359 10.1992 27.8359 13.9727C27.8359 17.7461 27.8086 18.2109 27.7539 19.6875C27.6992 21.1367 27.4531 22.1484 27.0977 23.0508C26.7422 23.9805 26.2773 24.7461 25.5117 25.5117C24.7461 26.2773 23.9805 26.7422 23.0508 27.0977C22.1484 27.4531 21.1367 27.6992 19.6875 27.7539C18.2109 27.8086 17.7461 27.8359 13.9727 27.8359C10.1992 27.8359 9.73438 27.8086 8.25781 27.7539C6.80859 27.6992 5.79688 27.4531 4.89453 27.0977C3.96484 26.7422 3.19922 26.2773 2.43359 25.5117C1.66797 24.7461 1.20312 23.9805 0.847656 23.0508C0.492188 22.1484 0.246094 21.1367 0.191406 19.6875C0.136719 18.2109 0.109375 17.7461 0.109375 13.9727C0.109375 10.1992 0.136719 9.73438 0.191406 8.25781C0.246094 6.80859 0.492188 5.79688 0.847656 4.89453C1.20312 3.96484 1.66797 3.19922 2.43359 2.43359C3.19922 1.66797 3.96484 1.20312 4.89453 0.847656C5.79688 0.492188 6.80859 0.246094 8.25781 0.191406C9.73438 0.136719 10.1992 0.109375 13.9727 0.109375ZM13.9727 1.91406C10.0352 1.91406 9.57031 1.94141 8.03906 1.99609C6.61719 2.05078 5.82422 2.32422 5.30469 2.51562C3.96484 3.0625 3.0625 3.96484 2.51562 5.30469C2.32422 5.82422 2.05078 6.61719 1.99609 8.03906C1.94141 9.57031 1.91406 10.0352 1.91406 13.9727C1.91406 17.9102 1.94141 18.375 1.99609 19.9062C2.05078 21.3281 2.32422 22.1211 2.51562 22.6406C3.0625 23.9805 3.96484 24.8828 5.30469 25.4297C5.82422 25.6211 6.61719 25.8945 8.03906 25.9492C9.57031 26.0039 10.0352 26.0312 13.9727 26.0312C17.9102 26.0312 18.375 26.0039 19.9062 25.9492C21.3281 25.8945 22.1211 25.6211 22.6406 25.4297C23.9805 24.8828 24.8828 23.9805 25.4297 22.6406C25.6211 22.1211 25.8945 21.3281 25.9492 19.9062C26.0039 18.375 26.0312 17.9102 26.0312 13.9727C26.0312 10.0352 26.0039 9.57031 25.9492 8.03906C25.8945 6.61719 25.6211 5.82422 25.4297 5.30469C24.8828 3.96484 23.9805 3.0625 22.6406 2.51562C22.1211 2.32422 21.3281 2.05078 19.9062 1.99609C18.375 1.94141 17.9102 1.91406 13.9727 1.91406ZM13.9727 19.5234C17.0352 19.5234 19.5234 17.0352 19.5234 13.9727C19.5234 10.9102 17.0352 8.42188 13.9727 8.42188C10.9102 8.42188 8.42188 10.9102 8.42188 13.9727C8.42188 17.0352 10.9102 19.5234 13.9727 19.5234ZM13.9727 6.86328C17.9102 6.86328 21.082 10.0352 21.082 13.9727C21.082 17.9102 17.9102 21.082 13.9727 21.082C10.0352 21.082 6.86328 17.9102 6.86328 13.9727C6.86328 10.0352 10.0352 6.86328 13.9727 6.86328ZM23.0508 6.58984C23.0508 7.51953 22.2852 8.23047 21.3555 8.23047C20.4258 8.23047 19.7148 7.51953 19.7148 6.58984C19.7148 5.66016 20.4258 4.89453 21.3555 4.89453C22.2852 4.89453 23.0508 5.66016 23.0508 6.58984Z" fill="#1E272E"/>
</svg>
