<svg width="22" height="30" viewBox="0 0 22 30" fill="none" xmlns="http://www.w3.org/2000/svg">
<path fill-rule="evenodd" clip-rule="evenodd" d="M18.4023 29.783H16.5494C7.40936 29.783 0 22.3737 0 13.2336V9.59676C0 4.2967 4.2967 0 9.59676 0H12.403C17.703 0 21.9997 4.2967 21.9997 9.59676V13.592C21.9997 13.8418 21.9044 14.0818 21.7337 14.2644L21.6994 14.3011C21.5869 14.4215 21.4807 14.5352 21.4564 14.546C20.9005 14.7696 20.6954 14.906 20.261 15.195L20.13 15.282C17.5521 16.9962 15.9604 19.8851 15.9604 23.0785C15.9604 24.8126 16.4435 26.4771 17.3073 27.9133C17.6517 28.4855 18.0571 29.0206 18.5171 29.5087C18.6154 29.6129 18.5452 29.783 18.4023 29.783ZM6.16178 5.12268C4.2689 5.25505 2.70364 6.84348 2.60105 8.73967C2.48854 10.8543 4.11337 12.671 6.22466 12.7869C6.25775 12.7902 6.29084 12.7935 6.32062 12.8001H8.58413C9.27907 12.8001 9.93099 13.0714 10.4241 13.5612L10.9999 14.137L11.5757 13.5612C12.0688 13.0714 12.7207 12.8001 13.4156 12.8001H15.9174C15.9703 12.7802 16.0233 12.767 16.0795 12.7604C18.0882 12.489 19.5443 10.6855 19.3921 8.65694C19.2498 6.77399 17.7209 5.25505 15.838 5.12268C13.773 4.97708 11.9695 6.47285 11.7444 8.52788C11.7014 8.90844 11.3804 9.19303 10.9999 9.19303C10.6193 9.19303 10.2983 8.90844 10.2553 8.52788C10.0303 6.47616 8.23005 4.9837 6.16178 5.12268ZM20.1313 17.6627C20.6356 17.1802 21.2104 16.7636 21.8471 16.4313C21.9159 16.3952 22 16.4469 22 16.5243V29.7834H21.8769C21.8196 29.7281 21.7574 29.6768 21.6846 29.6364C20.8775 29.1874 20.1776 28.5993 19.6005 27.915C18.4763 26.5817 17.8277 24.8768 17.8277 23.0786C17.8277 20.9815 18.6842 19.0473 20.1313 17.6627ZM6.51157 10.5415C7.387 10.5415 8.09668 9.83186 8.09668 8.95642C8.09668 8.08098 7.387 7.3713 6.51157 7.3713C5.63613 7.3713 4.92645 8.08098 4.92645 8.95642C4.92645 9.83186 5.63613 10.5415 6.51157 10.5415ZM17.0729 8.95642C17.0729 9.83186 16.3632 10.5415 15.4878 10.5415C14.6123 10.5415 13.9026 9.83186 13.9026 8.95642C13.9026 8.08098 14.6123 7.3713 15.4878 7.3713C16.3632 7.3713 17.0729 8.08098 17.0729 8.95642Z" fill="url(#paint0_linear_38_293)"/>
<defs>
<linearGradient id="paint0_linear_38_293" x1="15.4877" y1="7.3713" x2="15.4877" y2="10.5415" gradientUnits="userSpaceOnUse">
<stop stop-color="#FF793F"/>
<stop offset="1" stop-color="#FE6844"/>
</linearGradient>
</defs>
</svg>
