<svg width="124" height="124" viewBox="0 0 124 124" fill="none" xmlns="http://www.w3.org/2000/svg">
<g filter="url(#filter0_i_265_142)">
<circle cx="62" cy="62" r="62" fill="white"/>
</g>
<circle cx="62" cy="62" r="55" fill="url(#paint0_linear_265_142)"/>
<path d="M62.0017 59.3571C70.7593 59.3571 77.8588 52.2577 77.8588 43.5C77.8588 34.7423 70.7593 27.6429 62.0017 27.6429C53.244 27.6429 46.1445 34.7423 46.1445 43.5C46.1445 52.2577 53.244 59.3571 62.0017 59.3571Z" fill="white"/>
<path d="M69.6202 64.6429H54.3815C49.3944 64.6491 44.6135 66.6332 41.0874 70.1598C37.5613 73.6865 35.5779 78.4677 35.5723 83.4547C35.5758 86.8756 36.9362 90.1553 39.3552 92.5742C41.7741 94.9932 45.0538 96.3536 48.4747 96.3571H75.5243C78.9459 96.3536 82.2263 94.9929 84.6457 92.5735C87.0651 90.1541 88.4259 86.8736 88.4294 83.4521C88.4238 78.4653 86.4403 73.6843 82.9141 70.1581C79.3879 66.6319 74.607 64.6484 69.6202 64.6429V64.6429Z" fill="white"/>
<defs>
<filter id="filter0_i_265_142" x="0" y="0" width="124" height="124" filterUnits="userSpaceOnUse" color-interpolation-filters="sRGB">
<feFlood flood-opacity="0" result="BackgroundImageFix"/>
<feBlend mode="normal" in="SourceGraphic" in2="BackgroundImageFix" result="shape"/>
<feColorMatrix in="SourceAlpha" type="matrix" values="0 0 0 0 0 0 0 0 0 0 0 0 0 0 0 0 0 0 127 0" result="hardAlpha"/>
<feMorphology radius="1" operator="erode" in="SourceAlpha" result="effect1_innerShadow_265_142"/>
<feOffset/>
<feGaussianBlur stdDeviation="2"/>
<feComposite in2="hardAlpha" operator="arithmetic" k2="-1" k3="1"/>
<feColorMatrix type="matrix" values="0 0 0 0 0 0 0 0 0 0 0 0 0 0 0 0 0 0 0.04 0"/>
<feBlend mode="normal" in2="shape" result="effect1_innerShadow_265_142"/>
</filter>
<linearGradient id="paint0_linear_265_142" x1="18.5" y1="32.5" x2="117" y2="98" gradientUnits="userSpaceOnUse">
<stop stop-color="#DDDDDD" stop-opacity="0.86"/>
<stop offset="1" stop-color="#DDDDDD" stop-opacity="0.36"/>
</linearGradient>
</defs>
</svg>
